More Tidyverse – ZKA
…
tidyr: reshape data

{tidyr} helps move between wide and long data and fill missing values.

pivot_longer() and pivot_wider()

df_wide <- df |>
  select(id, weight, height)

df_long <- df_wide |>
  pivot_longer(cols = c(weight, height), names_to = "measure", values_to = "value")

df_long

# A tibble: 2,000 × 3
      id measure value
   <int> <chr>   <dbl>
 1     1 weight     59
 2     1 height    174
 3     2 weight     87
 4     2 height    175
 5     3 weight     68
 6     3 height    174
 7     4 weight     84
 8     4 height    167
 9     5 weight     74
10     5 height    170
# ℹ 1,990 more rows

df_long |>
  pivot_wider(names_from = measure, values_from = value)

# A tibble: 1,000 × 3
      id weight height
   <int>  <dbl>  <dbl>
 1     1     59    174
 2     2     87    175
 3     3     68    174
 4     4     84    167
 5     5     74    170
 6     6     76    164
 7     7     80    174
 8     8     66    170
 9     9     74    159
10    10     68    177
# ℹ 990 more rows
…
Purpose: fast, friendly file import. Useful functions: read_csv(), read_tsv(), write_csv().

Tip

Other nice packages are {readxl} for Excel files and {googlesheets4} for Google Sheets along with {tidyxl} for non-tabular Excel files.

tibble (modern data frame)

Purpose: cleaner printing and safer column handling. Useful functions: tibble(), add_row(), as_tibble().

df |>
  add_row(id = 9, date = ymd("2026-04-06"), sex = "Male")

# A tibble: 1,001 × 7
      id date         age sex   weight height note       
   <dbl> <date>     <dbl> <chr>  <dbl>  <dbl> <chr>      
 1     1 2024-10-10    49 F         59    174 new-patient
 2     2 2024-12-01    43 M         87    175 urgent     
 3     3 2024-04-10    41 M         68    174 new-patient
 4     4 2024-04-20    34 F         84    167 new-patient
 5     5 2024-05-12    42 F         74    170 follow-up  
 6     6 2024-04-07    38 F         76    164 urgent     
 7     7 2024-04-12    41 M         80    174 urgent     
 8     8 2024-08-01    34 M         66    170 urgent     
 9     9 2024-03-30    52 F         74    159 follow-up  
10    10 2024-11-21    51 M         68    177 new-patient
# ℹ 991 more rows
…
       F        M 
74.91634 75.69136 

stringr (string handling)

Purpose: consistent string tools. Useful functions: str_detect(), str_replace(), str_extract().

df |>
  filter(str_detect(note, "new|urgent")) |>
  mutate(note_clean = str_replace(note, "-", " ")) |>
  select(id, note, note_clean)

# A tibble: 644 × 3
      id note        note_clean 
   <int> <chr>       <chr>      
 1     1 new-patient new patient
 2     2 urgent      urgent     
 3     3 new-patient new patient
 4     4 new-patient new patient
 5     6 urgent      urgent     
 6     7 urgent      urgent     
 7     8 urgent      urgent     
 8    10 new-patient new patient
 9    11 new-patient new patient
10    12 urgent      urgent     
# ℹ 634 more rows
…
lubridate (dates and times)

Purpose: parse and manipulate dates. Useful functions: ymd(), wday(), floor_date().

df |>
  mutate(
    weekday = wday(date, label = TRUE),
    week_start = floor_date(date, unit = "week")
  ) |>
  select(id, date, weekday, week_start)

# A tibble: 1,000 × 4
      id date       weekday week_start
   <int> <date>     <ord>   <date>    
 1     1 2024-10-10 Thu     2024-10-06
 2     2 2024-12-01 Sun     2024-12-01
 3     3 2024-04-10 Wed     2024-04-07
 4     4 2024-04-20 Sat     2024-04-14
 5     5 2024-05-12 Sun     2024-05-12
 6     6 2024-04-07 Sun     2024-04-07
 7     7 2024-04-12 Fri     2024-04-07
 8     8 2024-08-01 Thu     2024-07-28
 9     9 2024-03-30 Sat     2024-03-24
10    10 2024-11-21 Thu     2024-11-17
# ℹ 990 more rows
…
